<?xml version="1.0" encoding="utf-8"?>
<!-- Generator: Adobe Illustrator 16.0.0, SVG Export Plug-In . SVG Version: 6.00 Build 0)  -->
<!DOCTYPE svg PUBLIC "-//W3C//DTD SVG 1.1//EN" "http://www.w3.org/Graphics/SVG/1.1/DTD/svg11.dtd">
<svg version="1.1" id="Layer_1" xmlns="http://www.w3.org/2000/svg" xmlns:xlink="http://www.w3.org/1999/xlink" x="0px" y="0px"
	 width="52.667px" height="47.834px" viewBox="3.5 0 52.667 47.834" enable-background="new 3.5 0 52.667 47.834"
	 xml:space="preserve">
<g>
	<path d="M18.883,29.741l-4.921,4.925v-4.343c0-0.452-0.366-0.823-0.818-0.823h-2.109c-0.347,0-3.394-0.121-3.394-3.394V7.145
		c0-0.347,0.121-3.399,3.394-3.399h29.5c0.346,0.005,3.398,0.125,3.398,3.394v2.636c0,0.451,0.367,0.818,0.818,0.818
		s0.818-0.367,0.818-0.818V7.139c0-3.981-3.293-5.03-5.035-5.03h-29.5C7.055,2.108,6,5.402,6,7.139v18.967
		c0,3.981,3.293,5.035,5.035,5.035h1.286v5.503c0,0.331,0.201,0.628,0.507,0.759c0.101,0.039,0.206,0.059,0.317,0.059
		c0.21,0,0.421-0.08,0.577-0.24l6.321-6.32c0.321-0.321,0.321-0.838,0-1.159C19.721,29.419,19.203,29.419,18.883,29.741z"/>
	<path d="M48.965,12.64H27.894c-1.742,0-5.036,1.055-5.036,5.036v16.859c0,3.981,3.294,5.035,5.036,5.035h6.32
		c0.452,0,0.819-0.367,0.819-0.818c0-0.457-0.367-0.823-0.819-0.823h-6.32c-0.346,0-3.393-0.12-3.393-3.394V17.676
		c0-3.268,3.047-3.394,3.393-3.394h21.071c3.272,0,3.393,3.052,3.398,3.394v16.859c0,3.273-3.053,3.395-3.398,3.395h-4.213
		c-0.451,0-0.818,0.365-0.818,0.822v4.344L39.01,38.17c-0.322-0.32-0.84-0.32-1.16,0c-0.322,0.321-0.322,0.838,0,1.158l6.32,6.322
		c0.161,0.16,0.367,0.241,0.582,0.241c0.105,0,0.211-0.021,0.312-0.061c0.306-0.13,0.508-0.427,0.508-0.759V39.57h3.394
		c1.74,0,5.035-1.054,5.035-5.035V17.676C54,15.935,52.945,12.64,48.965,12.64z"/>
	<path d="M30.002,22.712H46.86c0.452,0,0.819-0.367,0.819-0.819c0-0.456-0.367-0.822-0.819-0.822H30.002
		c-0.452,0-0.823,0.367-0.823,0.822C29.179,22.345,29.55,22.712,30.002,22.712z"/>
	<path d="M30.002,26.924H46.86c0.452,0,0.819-0.367,0.819-0.818s-0.367-0.818-0.819-0.818H30.002c-0.452,0-0.823,0.366-0.823,0.818
		S29.55,26.924,30.002,26.924z"/>
	<path d="M30.002,31.141H46.86c0.452,0,0.819-0.365,0.819-0.817c0-0.452-0.367-0.823-0.819-0.823H30.002
		c-0.452,0-0.823,0.371-0.823,0.823S29.55,31.141,30.002,31.141z"/>
</g>
</svg>
